﻿Date,River,Treatment,SiteID,EvaluatedBy,DistanceFromUpstream(m),Section,DistanceWithinSection(m),TotalWidth(cm),Depth(cm),BottomWaterFlow(ft/s),SurfaceWaterFlow(ft/s),OBS
4/1/23,Maracas,LowUrb,Site15,AM & JRA,0,1,24,480,10,0,0,
4/1/23,Maracas,LowUrb,Site15,AM & JRA,0,2,72,480,11,0,0,
4/1/23,Maracas,LowUrb,Site15,AM & JRA,0,3,120,480,22,0.2,0.4,
4/1/23,Maracas,LowUrb,Site15,AM & JRA,0,4,168,480,51,0.4,0.6,
4/1/23,Maracas,LowUrb,Site15,AM & JRA,0,5,216,480,67,0.2,0.6,
4/1/23,Maracas,LowUrb,Site15,AM & JRA,0,6,264,480,61,0.8,0.8,
4/1/23,Maracas,LowUrb,Site15,AM & JRA,0,7,312,480,45,0.2,1.3,
4/1/23,Maracas,LowUrb,Site15,AM & JRA,0,8,360,480,39,0.9,0.9,
4/1/23,Maracas,LowUrb,Site15,AM & JRA,0,9,408,480,29,0.6,1.5,
4/1/23,Maracas,LowUrb,Site15,AM & JRA,0,10,456,480,14,0,1.3,
4/1/23,Maracas,LowUrb,Site15,AM & JRA,5,1,33,660,21,0,0,
4/1/23,Maracas,LowUrb,Site15,AM & JRA,5,2,99,660,50,0,0,
4/1/23,Maracas,LowUrb,Site15,AM & JRA,5,3,165,660,94,0.2,0.2,
4/1/23,Maracas,LowUrb,Site15,AM & JRA,5,4,231,660,76,0,0.2,
4/1/23,Maracas,LowUrb,Site15,AM & JRA,5,5,297,660,55,0.4,0.2,
4/1/23,Maracas,LowUrb,Site15,AM & JRA,5,6,363,660,38,0.2,0.4,
4/1/23,Maracas,LowUrb,Site15,AM & JRA,5,7,429,660,29,0.4,0.6,
4/1/23,Maracas,LowUrb,Site15,AM & JRA,5,8,495,660,15,0.6,0.6,
4/1/23,Maracas,LowUrb,Site15,AM & JRA,5,9,561,660,12,0,0.6,
4/1/23,Maracas,LowUrb,Site15,AM & JRA,5,10,627,660,5,0,0.2,
4/1/23,Maracas,LowUrb,Site15,AM & JRA,10,1,27,540,19,0,0,
4/1/23,Maracas,LowUrb,Site15,AM & JRA,10,2,81,540,49,0,0,
4/1/23,Maracas,LowUrb,Site15,AM & JRA,10,3,135,540,87,0.2,0,
4/1/23,Maracas,LowUrb,Site15,AM & JRA,10,4,189,540,87,0,0.2,
4/1/23,Maracas,LowUrb,Site15,AM & JRA,10,5,243,540,77,0,0,
4/1/23,Maracas,LowUrb,Site15,AM & JRA,10,6,297,540,57,0,0.2,
4/1/23,Maracas,LowUrb,Site15,AM & JRA,10,7,351,540,39,0.4,0.6,
4/1/23,Maracas,LowUrb,Site15,AM & JRA,10,8,405,540,35,0.4,0.4,
4/1/23,Maracas,LowUrb,Site15,AM & JRA,10,9,459,540,29,0,0.4,
4/1/23,Maracas,LowUrb,Site15,AM & JRA,10,10,513,540,15,0,0,
4/1/23,Maracas,LowUrb,Site15,AM & JRA,15,1,16.5,330,53,0,0,
4/1/23,Maracas,LowUrb,Site15,AM & JRA,15,2,49.5,330,26,0.8,0.8,
4/1/23,Maracas,LowUrb,Site15,AM & JRA,15,3,82.5,330,25,0.8,0.8,
4/1/23,Maracas,LowUrb,Site15,AM & JRA,15,4,115.5,330,55,0.6,0.9,
4/1/23,Maracas,LowUrb,Site15,AM & JRA,15,5,148.5,330,46,0,0.8,
4/1/23,Maracas,LowUrb,Site15,AM & JRA,15,6,181.5,330,37,0.2,0.9,
4/1/23,Maracas,LowUrb,Site15,AM & JRA,15,7,214.5,330,14,0.6,0.8,
4/1/23,Maracas,LowUrb,Site15,AM & JRA,15,8,247.5,330,24,0,0.8,
4/1/23,Maracas,LowUrb,Site15,AM & JRA,15,9,280.5,330,10,0.2,0.8,
4/1/23,Maracas,LowUrb,Site15,AM & JRA,15,10,313.5,330,5,0,0,
4/1/23,Maracas,LowUrb,Site15,AM & JRA,20,1,22,440,18,0,0,
4/1/23,Maracas,LowUrb,Site15,AM & JRA,20,2,66,440,0,0,0,Rock on the way.
4/1/23,Maracas,LowUrb,Site15,AM & JRA,20,3,110,440,20,0.8,1.1,
4/1/23,Maracas,LowUrb,Site15,AM & JRA,20,4,154,440,27,0.4,0.9,
4/1/23,Maracas,LowUrb,Site15,AM & JRA,20,5,198,440,30,0,0.4,
4/1/23,Maracas,LowUrb,Site15,AM & JRA,20,6,242,440,18,1.1,1.5,
4/1/23,Maracas,LowUrb,Site15,AM & JRA,20,7,286,440,19,1.1,1.7,
4/1/23,Maracas,LowUrb,Site15,AM & JRA,20,8,330,440,11,1.1,1.1,
4/1/23,Maracas,LowUrb,Site15,AM & JRA,20,9,374,440,9,0.6,0.6,
4/1/23,Maracas,LowUrb,Site15,AM & JRA,20,10,418,440,2,0,0,
4/1/23,Maracas,LowUrb,Site15,AM & JRA,25,1,18.5,370,17,0,0,
4/1/23,Maracas,LowUrb,Site15,AM & JRA,25,2,55.5,370,48,0,0.8,
4/1/23,Maracas,LowUrb,Site15,AM & JRA,25,3,92.5,370,41,0.4,1.1,
4/1/23,Maracas,LowUrb,Site15,AM & JRA,25,4,129.5,370,46,0,1.9,
4/1/23,Maracas,LowUrb,Site15,AM & JRA,25,5,166.5,370,32,0,0.2,
4/1/23,Maracas,LowUrb,Site15,AM & JRA,25,6,203.5,370,18,0.9,1.5,
4/1/23,Maracas,LowUrb,Site15,AM & JRA,25,7,240.5,370,15,0.6,0.9,
4/1/23,Maracas,LowUrb,Site15,AM & JRA,25,8,277.5,370,10,0.4,0.4,
4/1/23,Maracas,LowUrb,Site15,AM & JRA,25,9,314.5,370,8,0,0,
4/1/23,Maracas,LowUrb,Site15,AM & JRA,25,10,351.5,370,5,0,0,
4/1/23,Maracas,LowUrb,Site15,AM & JRA,30,1,21,420,6,0,0,Rock on the way.
4/1/23,Maracas,LowUrb,Site15,AM & JRA,30,2,63,420,18,0,0,
4/1/23,Maracas,LowUrb,Site15,AM & JRA,30,3,105,420,18,0.4,0.4,
4/1/23,Maracas,LowUrb,Site15,AM & JRA,30,4,147,420,16,1.1,1.3,
4/1/23,Maracas,LowUrb,Site15,AM & JRA,30,5,189,420,10,0,0,
4/1/23,Maracas,LowUrb,Site15,AM & JRA,30,6,231,420,7,0,0,Rock on the way.
4/1/23,Maracas,LowUrb,Site15,AM & JRA,30,7,273,420,20,0.4,3,
4/1/23,Maracas,LowUrb,Site15,AM & JRA,30,8,315,420,14,0.6,2.7,
4/1/23,Maracas,LowUrb,Site15,AM & JRA,30,9,357,420,15,1.3,2.8,
4/1/23,Maracas,LowUrb,Site15,AM & JRA,30,10,399,420,15,1.9,2.7,
4/1/23,Maracas,HihgUrb,Site4,AM & JRA,0,1,15.5,310,73,0.2,0.4,
4/1/23,Maracas,HihgUrb,Site4,AM & JRA,0,2,46.5,310,70,0.2,0.6,
4/1/23,Maracas,HihgUrb,Site4,AM & JRA,0,3,77.5,310,68,0,0.2,
4/1/23,Maracas,HihgUrb,Site4,AM & JRA,0,4,108.5,310,61,0,0,
4/1/23,Maracas,HihgUrb,Site4,AM & JRA,0,5,139.5,310,68,0,0,
4/1/23,Maracas,HihgUrb,Site4,AM & JRA,0,6,170.5,310,50,0,0.2,
4/1/23,Maracas,HihgUrb,Site4,AM & JRA,0,7,201.5,310,40,0,0,
4/1/23,Maracas,HihgUrb,Site4,AM & JRA,0,8,232.5,310,28,0,0,
4/1/23,Maracas,HihgUrb,Site4,AM & JRA,0,9,263.5,310,18,0,0,
4/1/23,Maracas,HihgUrb,Site4,AM & JRA,0,10,294.5,310,7,0,0,
4/1/23,Maracas,HihgUrb,Site4,AM & JRA,5,1,15.5,310,64,0,0.4,
4/1/23,Maracas,HihgUrb,Site4,AM & JRA,5,2,46.5,310,65,0,0.4,
4/1/23,Maracas,HihgUrb,Site4,AM & JRA,5,3,77.5,310,60,0,0.4,
4/1/23,Maracas,HihgUrb,Site4,AM & JRA,5,4,108.5,310,56,0,0.2,
4/1/23,Maracas,HihgUrb,Site4,AM & JRA,5,5,139.5,310,50,0,0.2,
4/1/23,Maracas,HihgUrb,Site4,AM & JRA,5,6,170.5,310,46,0,0,
4/1/23,Maracas,HihgUrb,Site4,AM & JRA,5,7,201.5,310,40,0,0,
4/1/23,Maracas,HihgUrb,Site4,AM & JRA,5,8,232.5,310,33,0,0,
4/1/23,Maracas,HihgUrb,Site4,AM & JRA,5,9,263.5,310,20,0,0,
4/1/23,Maracas,HihgUrb,Site4,AM & JRA,5,10,294.5,310,8,0,0,
4/1/23,Maracas,HihgUrb,Site4,AM & JRA,10,1,16,320,46,0.2,0.4,
4/1/23,Maracas,HihgUrb,Site4,AM & JRA,10,2,48,320,50,0,0.4,
4/1/23,Maracas,HihgUrb,Site4,AM & JRA,10,3,80,320,47,0,0.6,
4/1/23,Maracas,HihgUrb,Site4,AM & JRA,10,4,112,320,42,0,0.4,
4/1/23,Maracas,HihgUrb,Site4,AM & JRA,10,5,144,320,37,0,0.4,
4/1/23,Maracas,HihgUrb,Site4,AM & JRA,10,6,176,320,35,0,0.4,
4/1/23,Maracas,HihgUrb,Site4,AM & JRA,10,7,208,320,31,0.2,0.4,
4/1/23,Maracas,HihgUrb,Site4,AM & JRA,10,8,240,320,23,0,0.4,
4/1/23,Maracas,HihgUrb,Site4,AM & JRA,10,9,272,320,15,0.2,0.4,
4/1/23,Maracas,HihgUrb,Site4,AM & JRA,10,10,304,320,8,0,0,
4/1/23,Maracas,HihgUrb,Site4,AM & JRA,15,1,20,400,26,0,0.8,
4/1/23,Maracas,HihgUrb,Site4,AM & JRA,15,2,60,400,24,0.8,0.9,
4/1/23,Maracas,HihgUrb,Site4,AM & JRA,15,3,100,400,28,0.8,0.8,
4/1/23,Maracas,HihgUrb,Site4,AM & JRA,15,4,140,400,14,0.6,0.9,
4/1/23,Maracas,HihgUrb,Site4,AM & JRA,15,5,180,400,11,0.6,0.6,
4/1/23,Maracas,HihgUrb,Site4,AM & JRA,15,6,220,400,10,0.8,0.8,
4/1/23,Maracas,HihgUrb,Site4,AM & JRA,15,7,260,400,5,0.8,0.8,
4/1/23,Maracas,HihgUrb,Site4,AM & JRA,15,8,300,400,5,0.2,0.2,
4/1/23,Maracas,HihgUrb,Site4,AM & JRA,15,9,340,400,2,0,0,
4/1/23,Maracas,HihgUrb,Site4,AM & JRA,15,10,380,400,2,0,0,
4/1/23,Maracas,HihgUrb,Site4,AM & JRA,20,1,11,220,13,0,0,
4/1/23,Maracas,HihgUrb,Site4,AM & JRA,20,2,33,220,15,0,0,
4/1/23,Maracas,HihgUrb,Site4,AM & JRA,20,3,55,220,21,0,0,
4/1/23,Maracas,HihgUrb,Site4,AM & JRA,20,4,77,220,28,0.9,0.9,
4/1/23,Maracas,HihgUrb,Site4,AM & JRA,20,5,99,220,32,0.8,1.5,
4/1/23,Maracas,HihgUrb,Site4,AM & JRA,20,6,121,220,21,1.3,2.1,
4/1/23,Maracas,HihgUrb,Site4,AM & JRA,20,7,143,220,17,1.7,1.9,
4/1/23,Maracas,HihgUrb,Site4,AM & JRA,20,8,165,220,15,1.5,1.9,
4/1/23,Maracas,HihgUrb,Site4,AM & JRA,20,9,187,220,8,1.1,1.1,
4/1/23,Maracas,HihgUrb,Site4,AM & JRA,20,10,209,220,2,0,0,
4/1/23,Maracas,HihgUrb,Site4,AM & JRA,25,1,13,260,0,0,0,Fence on the way.
4/1/23,Maracas,HihgUrb,Site4,AM & JRA,25,2,39,260,29,0.4,0.8,
4/1/23,Maracas,HihgUrb,Site4,AM & JRA,25,3,65,260,45,0.3,0.9,
4/1/23,Maracas,HihgUrb,Site4,AM & JRA,25,4,91,260,41,0.6,0.9,
4/1/23,Maracas,HihgUrb,Site4,AM & JRA,25,5,117,260,35,0.6,0.8,
4/1/23,Maracas,HihgUrb,Site4,AM & JRA,25,6,143,260,32,0.4,0.6,
4/1/23,Maracas,HihgUrb,Site4,AM & JRA,25,7,169,260,26,0,0.2,
4/1/23,Maracas,HihgUrb,Site4,AM & JRA,25,8,195,260,20,0,0.2,
4/1/23,Maracas,HihgUrb,Site4,AM & JRA,25,9,221,260,12,0,0,
4/1/23,Maracas,HihgUrb,Site4,AM & JRA,25,10,247,260,1,0,0,
4/1/23,Maracas,HihgUrb,Site4,AM & JRA,30,1,26,520,29,0,0,
4/1/23,Maracas,HihgUrb,Site4,AM & JRA,30,2,78,520,60,0,0.2,
4/1/23,Maracas,HihgUrb,Site4,AM & JRA,30,3,130,520,50,0,0.4,
4/1/23,Maracas,HihgUrb,Site4,AM & JRA,30,4,182,520,69,0,0.6,
4/1/23,Maracas,HihgUrb,Site4,AM & JRA,30,5,234,520,70,0,0.2,
4/1/23,Maracas,HihgUrb,Site4,AM & JRA,30,6,286,520,57,0,0.2,
4/1/23,Maracas,HihgUrb,Site4,AM & JRA,30,7,338,520,47,0,0,
4/1/23,Maracas,HihgUrb,Site4,AM & JRA,30,8,390,520,27,0,0,
4/1/23,Maracas,HihgUrb,Site4,AM & JRA,30,9,442,520,17,0,0,
4/1/23,Maracas,HihgUrb,Site4,AM & JRA,30,10,494,520,5,0,0,
4/5/23,Tacarigua,LowUrb,Site22,AM & JRA,0,1,45.7,914,29,0,0,Flow meter did not work properly.
4/5/23,Tacarigua,LowUrb,Site22,AM & JRA,0,2,137.1,914,51,0,0,
4/5/23,Tacarigua,LowUrb,Site22,AM & JRA,0,3,228.5,914,29,0,0,
4/5/23,Tacarigua,LowUrb,Site22,AM & JRA,0,4,319.9,914,63,0,0,
4/5/23,Tacarigua,LowUrb,Site22,AM & JRA,0,5,411.3,914,71,0,0,
4/5/23,Tacarigua,LowUrb,Site22,AM & JRA,0,6,502.7,914,82,0,0,
4/5/23,Tacarigua,LowUrb,Site22,AM & JRA,0,7,594.1,914,89,0,0,
4/5/23,Tacarigua,LowUrb,Site22,AM & JRA,0,8,685.5,914,100,0,0,
4/5/23,Tacarigua,LowUrb,Site22,AM & JRA,0,9,776.9,914,91,0,0,
4/5/23,Tacarigua,LowUrb,Site22,AM & JRA,0,10,868.3,914,70,0,0,
4/5/23,Tacarigua,LowUrb,Site22,AM & JRA,5,1,43.75,875,45,0,0,
4/5/23,Tacarigua,LowUrb,Site22,AM & JRA,5,2,131.25,875,56,0,0,
4/5/23,Tacarigua,LowUrb,Site22,AM & JRA,5,3,218.75,875,63,0,0,
4/5/23,Tacarigua,LowUrb,Site22,AM & JRA,5,4,306.25,875,68,0,0,
4/5/23,Tacarigua,LowUrb,Site22,AM & JRA,5,5,393.75,875,73,0,0,
4/5/23,Tacarigua,LowUrb,Site22,AM & JRA,5,6,481.25,875,81,0,0,
4/5/23,Tacarigua,LowUrb,Site22,AM & JRA,5,7,568.75,875,82,0,0,
4/5/23,Tacarigua,LowUrb,Site22,AM & JRA,5,8,656.25,875,72,0,0,
4/5/23,Tacarigua,LowUrb,Site22,AM & JRA,5,9,743.75,875,74,0,0,
4/5/23,Tacarigua,LowUrb,Site22,AM & JRA,5,10,831.25,875,69,0,0,
4/5/23,Tacarigua,LowUrb,Site22,AM & JRA,10,1,40.85,817,36,0,0,
4/5/23,Tacarigua,LowUrb,Site22,AM & JRA,10,2,122.55,817,45,0,0,
4/5/23,Tacarigua,LowUrb,Site22,AM & JRA,10,3,204.25,817,54,0,0,
4/5/23,Tacarigua,LowUrb,Site22,AM & JRA,10,4,285.95,817,63,0,0,
4/5/23,Tacarigua,LowUrb,Site22,AM & JRA,10,5,367.65,817,72,0,0,
4/5/23,Tacarigua,LowUrb,Site22,AM & JRA,10,6,449.35,817,77,0,0,
4/5/23,Tacarigua,LowUrb,Site22,AM & JRA,10,7,531.05,817,77,0,0,
4/5/23,Tacarigua,LowUrb,Site22,AM & JRA,10,8,612.75,817,74,0,0,
4/5/23,Tacarigua,LowUrb,Site22,AM & JRA,10,9,694.45,817,77,0,0,
4/5/23,Tacarigua,LowUrb,Site22,AM & JRA,10,10,776.15,817,73,0,0,
4/5/23,Tacarigua,LowUrb,Site22,AM & JRA,15,1,40,800,10,0,0,
4/5/23,Tacarigua,LowUrb,Site22,AM & JRA,15,2,120,800,27,0,0,
4/5/23,Tacarigua,LowUrb,Site22,AM & JRA,15,3,200,800,36,0,0,
4/5/23,Tacarigua,LowUrb,Site22,AM & JRA,15,4,280,800,49,0,0,
4/5/23,Tacarigua,LowUrb,Site22,AM & JRA,15,5,360,800,55,0,0,
4/5/23,Tacarigua,LowUrb,Site22,AM & JRA,15,6,440,800,63,0,0,
4/5/23,Tacarigua,LowUrb,Site22,AM & JRA,15,7,520,800,65,0,0,
4/5/23,Tacarigua,LowUrb,Site22,AM & JRA,15,8,600,800,69,0,0,
4/5/23,Tacarigua,LowUrb,Site22,AM & JRA,15,9,680,800,76,0,0,
4/5/23,Tacarigua,LowUrb,Site22,AM & JRA,15,10,760,800,79,0,0,
4/5/23,Tacarigua,LowUrb,Site22,AM & JRA,20,1,40,800,23,0,0,
4/5/23,Tacarigua,LowUrb,Site22,AM & JRA,20,2,120,800,35,0,0,
4/5/23,Tacarigua,LowUrb,Site22,AM & JRA,20,3,200,800,35,0,0,
4/5/23,Tacarigua,LowUrb,Site22,AM & JRA,20,4,280,800,45,0,0,
4/5/23,Tacarigua,LowUrb,Site22,AM & JRA,20,5,360,800,47,0,0,
4/5/23,Tacarigua,LowUrb,Site22,AM & JRA,20,6,440,800,45,0,0,
4/5/23,Tacarigua,LowUrb,Site22,AM & JRA,20,7,520,800,52,0,0,
4/5/23,Tacarigua,LowUrb,Site22,AM & JRA,20,8,600,800,52,0,0,
4/5/23,Tacarigua,LowUrb,Site22,AM & JRA,20,9,680,800,54,0,0,
4/5/23,Tacarigua,LowUrb,Site22,AM & JRA,20,10,760,800,50,0,0,
4/5/23,Tacarigua,LowUrb,Site22,AM & JRA,25,1,36,720,26,0,0,
4/5/23,Tacarigua,LowUrb,Site22,AM & JRA,25,2,108,720,25,0,0,
4/5/23,Tacarigua,LowUrb,Site22,AM & JRA,25,3,180,720,26,0,0,
4/5/23,Tacarigua,LowUrb,Site22,AM & JRA,25,4,252,720,28,0,0,
4/5/23,Tacarigua,LowUrb,Site22,AM & JRA,25,5,324,720,29,0,0,
4/5/23,Tacarigua,LowUrb,Site22,AM & JRA,25,6,396,720,32,0,0,
4/5/23,Tacarigua,LowUrb,Site22,AM & JRA,25,7,468,720,35,0,0,
4/5/23,Tacarigua,LowUrb,Site22,AM & JRA,25,8,540,720,50,0,0,
4/5/23,Tacarigua,LowUrb,Site22,AM & JRA,25,9,612,720,73,0,0,
4/5/23,Tacarigua,LowUrb,Site22,AM & JRA,25,10,684,720,82,0,0,
4/5/23,Tacarigua,LowUrb,Site22,AM & JRA,30,1,35,700,16,0,0,
4/5/23,Tacarigua,LowUrb,Site22,AM & JRA,30,2,105,700,21,0,0,
4/5/23,Tacarigua,LowUrb,Site22,AM & JRA,30,3,175,700,18,0,0,
4/5/23,Tacarigua,LowUrb,Site22,AM & JRA,30,4,245,700,26,0,0,
4/5/23,Tacarigua,LowUrb,Site22,AM & JRA,30,5,315,700,21,0,0,
4/5/23,Tacarigua,LowUrb,Site22,AM & JRA,30,6,385,700,29,0,0,
4/5/23,Tacarigua,LowUrb,Site22,AM & JRA,30,7,455,700,39,0,0,
4/5/23,Tacarigua,LowUrb,Site22,AM & JRA,30,8,525,700,50,0,0,
4/5/23,Tacarigua,LowUrb,Site22,AM & JRA,30,9,595,700,65,0,0,
4/5/23,Tacarigua,LowUrb,Site22,AM & JRA,30,10,665,700,74,0,0,
4/6/23,Tacarigua,HihgUrb,Site7,ST & JRA,0,1,22.5,450,17,11,2.5,
4/6/23,Tacarigua,HihgUrb,Site7,ST & JRA,0,2,67.5,450,21,2.5,4.1,
4/6/23,Tacarigua,HihgUrb,Site7,ST & JRA,0,3,112.5,450,19,1.7,3.2,
4/6/23,Tacarigua,HihgUrb,Site7,ST & JRA,0,4,157.5,450,16,0.2,2.3,
4/6/23,Tacarigua,HihgUrb,Site7,ST & JRA,0,5,202.5,450,16,0,0.2,
4/6/23,Tacarigua,HihgUrb,Site7,ST & JRA,0,6,247.5,450,16,0,0,
4/6/23,Tacarigua,HihgUrb,Site7,ST & JRA,0,7,292.5,450,16,0,0.2,
4/6/23,Tacarigua,HihgUrb,Site7,ST & JRA,0,8,337.5,450,17,0.2,1.5,
4/6/23,Tacarigua,HihgUrb,Site7,ST & JRA,0,9,382.5,450,13,0.8,0.4,
4/6/23,Tacarigua,HihgUrb,Site7,ST & JRA,0,10,427.5,450,5,0,0,
4/6/23,Tacarigua,HihgUrb,Site7,ST & JRA,5,1,23,460,12,0.6,0.9,
4/6/23,Tacarigua,HihgUrb,Site7,ST & JRA,5,2,69,460,17,0.8,1.5,
4/6/23,Tacarigua,HihgUrb,Site7,ST & JRA,5,3,115,460,24,1.1,2.1,
4/6/23,Tacarigua,HihgUrb,Site7,ST & JRA,5,4,161,460,25,0.6,2.1,
4/6/23,Tacarigua,HihgUrb,Site7,ST & JRA,5,5,207,460,25,1.1,2.1,
4/6/23,Tacarigua,HihgUrb,Site7,ST & JRA,5,6,253,460,19,0.8,0.8,
4/6/23,Tacarigua,HihgUrb,Site7,ST & JRA,5,7,299,460,15,0,0.2,
4/6/23,Tacarigua,HihgUrb,Site7,ST & JRA,5,8,345,460,8,0,0,
4/6/23,Tacarigua,HihgUrb,Site7,ST & JRA,5,9,391,460,8,0,0,
4/6/23,Tacarigua,HihgUrb,Site7,ST & JRA,5,10,437,460,5,0,0,
4/6/23,Tacarigua,HihgUrb,Site7,ST & JRA,10,1,22.3,446,13,0.6,0.8,
4/6/23,Tacarigua,HihgUrb,Site7,ST & JRA,10,2,66.9,446,21,0.8,1.5,
4/6/23,Tacarigua,HihgUrb,Site7,ST & JRA,10,3,111.5,446,25,0.9,1.1,
4/6/23,Tacarigua,HihgUrb,Site7,ST & JRA,10,4,156.1,446,22,1.5,1.9,
4/6/23,Tacarigua,HihgUrb,Site7,ST & JRA,10,5,200.7,446,21,1.1,1.9,
4/6/23,Tacarigua,HihgUrb,Site7,ST & JRA,10,6,245.3,446,21,0.8,1.3,
4/6/23,Tacarigua,HihgUrb,Site7,ST & JRA,10,7,289.9,446,16,0.6,0.9,
4/6/23,Tacarigua,HihgUrb,Site7,ST & JRA,10,8,334.5,446,15,0.6,0.4,
4/6/23,Tacarigua,HihgUrb,Site7,ST & JRA,10,9,379.1,446,15,0.2,0.2,
4/6/23,Tacarigua,HihgUrb,Site7,ST & JRA,10,10,423.7,446,8,0,0,
4/6/23,Tacarigua,HihgUrb,Site7,ST & JRA,15,1,27,540,27,0.2,0.8,
4/6/23,Tacarigua,HihgUrb,Site7,ST & JRA,15,2,81,540,30,0.6,1.5,
4/6/23,Tacarigua,HihgUrb,Site7,ST & JRA,15,3,135,540,29,1.1,1.5,
4/6/23,Tacarigua,HihgUrb,Site7,ST & JRA,15,4,189,540,21,0.6,1.7,
4/6/23,Tacarigua,HihgUrb,Site7,ST & JRA,15,5,243,540,27,0.8,1.3,
4/6/23,Tacarigua,HihgUrb,Site7,ST & JRA,15,6,297,540,20,0,0,
4/6/23,Tacarigua,HihgUrb,Site7,ST & JRA,15,7,351,540,21,0,0,
4/6/23,Tacarigua,HihgUrb,Site7,ST & JRA,15,8,405,540,15,0,0,
4/6/23,Tacarigua,HihgUrb,Site7,ST & JRA,15,9,459,540,10,0,0,
4/6/23,Tacarigua,HihgUrb,Site7,ST & JRA,15,10,513,540,10,0,0,
4/6/23,Tacarigua,HihgUrb,Site7,ST & JRA,20,1,34,680,23,0,0,
4/6/23,Tacarigua,HihgUrb,Site7,ST & JRA,20,2,102,680,27,0.2,0.4,
4/6/23,Tacarigua,HihgUrb,Site7,ST & JRA,20,3,170,680,35,0.6,1.3,
4/6/23,Tacarigua,HihgUrb,Site7,ST & JRA,20,4,238,680,36,1.1,1.5,
4/6/23,Tacarigua,HihgUrb,Site7,ST & JRA,20,5,306,680,32,0.4,0.9,
4/6/23,Tacarigua,HihgUrb,Site7,ST & JRA,20,6,374,680,28,0.4,0.4,
4/6/23,Tacarigua,HihgUrb,Site7,ST & JRA,20,7,442,680,27,0,0,
4/6/23,Tacarigua,HihgUrb,Site7,ST & JRA,20,8,510,680,14,0,0,
4/6/23,Tacarigua,HihgUrb,Site7,ST & JRA,20,9,578,680,8,0,0,
4/6/23,Tacarigua,HihgUrb,Site7,ST & JRA,20,10,646,680,8,0,0,
4/6/23,Tacarigua,HihgUrb,Site7,ST & JRA,25,1,34.5,690,27,0,0,
4/6/23,Tacarigua,HihgUrb,Site7,ST & JRA,25,2,103.5,690,27,0,0.6,
4/6/23,Tacarigua,HihgUrb,Site7,ST & JRA,25,3,172.5,690,29,0.4,0.8,
4/6/23,Tacarigua,HihgUrb,Site7,ST & JRA,25,4,241.5,690,30,0.6,0.9,
4/6/23,Tacarigua,HihgUrb,Site7,ST & JRA,25,5,310.5,690,28,0.6,1.1,
4/6/23,Tacarigua,HihgUrb,Site7,ST & JRA,25,6,379.5,690,24,0.4,0.6,
4/6/23,Tacarigua,HihgUrb,Site7,ST & JRA,25,7,448.5,690,29,0.2,0.4,
4/6/23,Tacarigua,HihgUrb,Site7,ST & JRA,25,8,517.5,690,13,0,0,
4/6/23,Tacarigua,HihgUrb,Site7,ST & JRA,25,9,586.5,690,12,0,0,
4/6/23,Tacarigua,HihgUrb,Site7,ST & JRA,25,10,655.5,690,8,0,0,
4/6/23,Tacarigua,HihgUrb,Site7,ST & JRA,30,1,31,620,24,0,0,
4/6/23,Tacarigua,HihgUrb,Site7,ST & JRA,30,2,93,620,37,0,0.2,
4/6/23,Tacarigua,HihgUrb,Site7,ST & JRA,30,3,155,620,47,0.2,0.6,
4/6/23,Tacarigua,HihgUrb,Site7,ST & JRA,30,4,217,620,43,0.4,0.6,
4/6/23,Tacarigua,HihgUrb,Site7,ST & JRA,30,5,279,620,42,0.2,0.8,
4/6/23,Tacarigua,HihgUrb,Site7,ST & JRA,30,6,341,620,35,0,0.4,
4/6/23,Tacarigua,HihgUrb,Site7,ST & JRA,30,7,403,620,26,0,0.2,
4/6/23,Tacarigua,HihgUrb,Site7,ST & JRA,30,8,465,620,16,0,0,
4/6/23,Tacarigua,HihgUrb,Site7,ST & JRA,30,9,527,620,17,0,0,
4/6/23,Tacarigua,HihgUrb,Site7,ST & JRA,30,10,589,620,15,0,0,
4/8/23,Tunapuna,LowUrb,Site11,AM & JRA,0,1,20,400,10,0,0,
4/8/23,Tunapuna,LowUrb,Site11,AM & JRA,0,2,60,400,13,0,0,
4/8/23,Tunapuna,LowUrb,Site11,AM & JRA,0,3,100,400,14,0,0.2,
4/8/23,Tunapuna,LowUrb,Site11,AM & JRA,0,4,140,400,16,0,0.6,
4/8/23,Tunapuna,LowUrb,Site11,AM & JRA,0,5,180,400,15,0,0.8,
4/8/23,Tunapuna,LowUrb,Site11,AM & JRA,0,6,220,400,10,0,0.6,
4/8/23,Tunapuna,LowUrb,Site11,AM & JRA,0,7,260,400,10,0,0,
4/8/23,Tunapuna,LowUrb,Site11,AM & JRA,0,8,300,400,9,0.4,0.4,
4/8/23,Tunapuna,LowUrb,Site11,AM & JRA,0,9,340,400,5,0,0,
4/8/23,Tunapuna,LowUrb,Site11,AM & JRA,0,10,380,400,2,0,0,
4/8/23,Tunapuna,LowUrb,Site11,AM & JRA,5,1,19,380,9,0,0,
4/8/23,Tunapuna,LowUrb,Site11,AM & JRA,5,2,57,380,10,0.4,0.6,
4/8/23,Tunapuna,LowUrb,Site11,AM & JRA,5,3,95,380,10,0.4,1.3,
4/8/23,Tunapuna,LowUrb,Site11,AM & JRA,5,4,133,380,9,0.2,0.6,
4/8/23,Tunapuna,LowUrb,Site11,AM & JRA,5,5,171,380,12,0,0.2,
4/8/23,Tunapuna,LowUrb,Site11,AM & JRA,5,6,209,380,0,0,0,
4/8/23,Tunapuna,LowUrb,Site11,AM & JRA,5,7,247,380,5,0,0,
4/8/23,Tunapuna,LowUrb,Site11,AM & JRA,5,8,285,380,5,0,0,
4/8/23,Tunapuna,LowUrb,Site11,AM & JRA,5,9,323,380,3,0,0,
4/8/23,Tunapuna,LowUrb,Site11,AM & JRA,5,10,361,380,3,0,0,
4/8/23,Tunapuna,LowUrb,Site11,AM & JRA,10,1,13,260,10,0,0,
4/8/23,Tunapuna,LowUrb,Site11,AM & JRA,10,2,39,260,10,1.1,1.1,
4/8/23,Tunapuna,LowUrb,Site11,AM & JRA,10,3,65,260,14,0,1.5,
4/8/23,Tunapuna,LowUrb,Site11,AM & JRA,10,4,91,260,16,0,0.4,
4/8/23,Tunapuna,LowUrb,Site11,AM & JRA,10,5,117,260,13,0,0,
4/8/23,Tunapuna,LowUrb,Site11,AM & JRA,10,6,143,260,12,0,0,
4/8/23,Tunapuna,LowUrb,Site11,AM & JRA,10,7,169,260,12,0,0,
4/8/23,Tunapuna,LowUrb,Site11,AM & JRA,10,8,195,260,8,0,0,
4/8/23,Tunapuna,LowUrb,Site11,AM & JRA,10,9,221,260,0,0,0,
4/8/23,Tunapuna,LowUrb,Site11,AM & JRA,10,10,247,260,1,0,0,
4/8/23,Tunapuna,LowUrb,Site11,AM & JRA,15,1,10,200,5,0,0,
4/8/23,Tunapuna,LowUrb,Site11,AM & JRA,15,2,30,200,8,0,0,
4/8/23,Tunapuna,LowUrb,Site11,AM & JRA,15,3,50,200,8,0,0,
4/8/23,Tunapuna,LowUrb,Site11,AM & JRA,15,4,70,200,10,0,0,
4/8/23,Tunapuna,LowUrb,Site11,AM & JRA,15,5,90,200,10,0.6,1.7,
4/8/23,Tunapuna,LowUrb,Site11,AM & JRA,15,6,110,200,8,1.7,1.7,
4/8/23,Tunapuna,LowUrb,Site11,AM & JRA,15,7,130,200,7,1.5,1.5,
4/8/23,Tunapuna,LowUrb,Site11,AM & JRA,15,8,150,200,8,0,0,
4/8/23,Tunapuna,LowUrb,Site11,AM & JRA,15,9,170,200,3,0,0,
4/8/23,Tunapuna,LowUrb,Site11,AM & JRA,15,10,190,200,1,0,0,
4/8/23,Tunapuna,LowUrb,Site11,AM & JRA,20,1,10,200,1,0,0,
4/8/23,Tunapuna,LowUrb,Site11,AM & JRA,20,2,30,200,5,0.4,0,
4/8/23,Tunapuna,LowUrb,Site11,AM & JRA,20,3,50,200,7,0,0,
4/8/23,Tunapuna,LowUrb,Site11,AM & JRA,20,4,70,200,1,0,0,
4/8/23,Tunapuna,LowUrb,Site11,AM & JRA,20,5,90,200,1,0,0,
4/8/23,Tunapuna,LowUrb,Site11,AM & JRA,20,6,110,200,1,0,0,
4/8/23,Tunapuna,LowUrb,Site11,AM & JRA,20,7,130,200,1,0,0,
4/8/23,Tunapuna,LowUrb,Site11,AM & JRA,20,8,150,200,7,0,0,
4/8/23,Tunapuna,LowUrb,Site11,AM & JRA,20,9,170,200,8,0,0,
4/8/23,Tunapuna,LowUrb,Site11,AM & JRA,20,10,190,200,13,0,1.9,
4/8/23,Tunapuna,LowUrb,Site11,AM & JRA,25,1,5.5,110,22,0.2,0.2,
4/8/23,Tunapuna,LowUrb,Site11,AM & JRA,25,2,16.5,110,20,0,0,
4/8/23,Tunapuna,LowUrb,Site11,AM & JRA,25,3,27.5,110,14,0,0,
4/8/23,Tunapuna,LowUrb,Site11,AM & JRA,25,4,38.5,110,12,0,0,
4/8/23,Tunapuna,LowUrb,Site11,AM & JRA,25,5,49.5,110,12,0,0,
4/8/23,Tunapuna,LowUrb,Site11,AM & JRA,25,6,60.5,110,10,0,0,
4/8/23,Tunapuna,LowUrb,Site11,AM & JRA,25,7,71.5,110,8,0,0,
4/8/23,Tunapuna,LowUrb,Site11,AM & JRA,25,8,82.5,110,7,0,0,
4/8/23,Tunapuna,LowUrb,Site11,AM & JRA,25,9,93.5,110,6,0,0,
4/8/23,Tunapuna,LowUrb,Site11,AM & JRA,25,10,104.5,110,1,0,0,
4/8/23,Tunapuna,LowUrb,Site11,AM & JRA,30,1,7,140,16,0,0.2,
4/8/23,Tunapuna,LowUrb,Site11,AM & JRA,30,2,21,140,12,0,0,
4/8/23,Tunapuna,LowUrb,Site11,AM & JRA,30,3,35,140,15,0,0,
4/8/23,Tunapuna,LowUrb,Site11,AM & JRA,30,4,49,140,15,0,0,
4/8/23,Tunapuna,LowUrb,Site11,AM & JRA,30,5,63,140,14,0,0,
4/8/23,Tunapuna,LowUrb,Site11,AM & JRA,30,6,77,140,13,0,0,
4/8/23,Tunapuna,LowUrb,Site11,AM & JRA,30,7,91,140,11,0,0,
4/8/23,Tunapuna,LowUrb,Site11,AM & JRA,30,8,105,140,8,0,0,
4/8/23,Tunapuna,LowUrb,Site11,AM & JRA,30,9,119,140,5,0,0,
4/8/23,Tunapuna,LowUrb,Site11,AM & JRA,30,10,133,140,5,0,0,
4/10/23,Tunapuna,HihgUrb,Site9,AM & JRA,0,1,17,340,16,0,0,
4/10/23,Tunapuna,HihgUrb,Site9,AM & JRA,0,2,51,340,17,0,0,
4/10/23,Tunapuna,HihgUrb,Site9,AM & JRA,0,3,85,340,16,0,0.2,
4/10/23,Tunapuna,HihgUrb,Site9,AM & JRA,0,4,119,340,16,0,0.2,
4/10/23,Tunapuna,HihgUrb,Site9,AM & JRA,0,5,153,340,21,0,0.2,
4/10/23,Tunapuna,HihgUrb,Site9,AM & JRA,0,6,187,340,21,0,0,
4/10/23,Tunapuna,HihgUrb,Site9,AM & JRA,0,7,221,340,26,0,0.2,
4/10/23,Tunapuna,HihgUrb,Site9,AM & JRA,0,8,255,340,22,0,0,
4/10/23,Tunapuna,HihgUrb,Site9,AM & JRA,0,9,289,340,20,0,0,
4/10/23,Tunapuna,HihgUrb,Site9,AM & JRA,0,10,323,340,19,0,0,
4/10/23,Tunapuna,HihgUrb,Site9,AM & JRA,5,1,16,320,16,0,0,
4/10/23,Tunapuna,HihgUrb,Site9,AM & JRA,5,2,48,320,16,0,0,
4/10/23,Tunapuna,HihgUrb,Site9,AM & JRA,5,3,80,320,21,0,0,
4/10/23,Tunapuna,HihgUrb,Site9,AM & JRA,5,4,112,320,21,0.1,0.2,
4/10/23,Tunapuna,HihgUrb,Site9,AM & JRA,5,5,144,320,23,0.2,0.2,
4/10/23,Tunapuna,HihgUrb,Site9,AM & JRA,5,6,176,320,14,0,0.2,
4/10/23,Tunapuna,HihgUrb,Site9,AM & JRA,5,7,208,320,14,0,0,
4/10/23,Tunapuna,HihgUrb,Site9,AM & JRA,5,8,240,320,15,0,0.2,
4/10/23,Tunapuna,HihgUrb,Site9,AM & JRA,5,9,272,320,18,0,0,
4/10/23,Tunapuna,HihgUrb,Site9,AM & JRA,5,10,304,320,15,0,0,
4/10/23,Tunapuna,HihgUrb,Site9,AM & JRA,10,1,17,340,10,0,0,
4/10/23,Tunapuna,HihgUrb,Site9,AM & JRA,10,2,51,340,13,0,0,
4/10/23,Tunapuna,HihgUrb,Site9,AM & JRA,10,3,85,340,12,0,0.2,
4/10/23,Tunapuna,HihgUrb,Site9,AM & JRA,10,4,119,340,17,0.2,0.4,
4/10/23,Tunapuna,HihgUrb,Site9,AM & JRA,10,5,153,340,16,0,0.4,
4/10/23,Tunapuna,HihgUrb,Site9,AM & JRA,10,6,187,340,13,0,0.2,
4/10/23,Tunapuna,HihgUrb,Site9,AM & JRA,10,7,221,340,10,0,0,
4/10/23,Tunapuna,HihgUrb,Site9,AM & JRA,10,8,255,340,8,0,0,
4/10/23,Tunapuna,HihgUrb,Site9,AM & JRA,10,9,289,340,8,0,0,
4/10/23,Tunapuna,HihgUrb,Site9,AM & JRA,10,10,323,340,13,0,0,
4/10/23,Tunapuna,HihgUrb,Site9,AM & JRA,15,1,17,340,8,0,0,
4/10/23,Tunapuna,HihgUrb,Site9,AM & JRA,15,2,51,340,10,0,0,
4/10/23,Tunapuna,HihgUrb,Site9,AM & JRA,15,3,85,340,10,0,0,
4/10/23,Tunapuna,HihgUrb,Site9,AM & JRA,15,4,119,340,12,0.2,0.4,
4/10/23,Tunapuna,HihgUrb,Site9,AM & JRA,15,5,153,340,13,0.2,0.8,
4/10/23,Tunapuna,HihgUrb,Site9,AM & JRA,15,6,187,340,13,0.2,1.1,
4/10/23,Tunapuna,HihgUrb,Site9,AM & JRA,15,7,221,340,14,0,0,
4/10/23,Tunapuna,HihgUrb,Site9,AM & JRA,15,8,255,340,14,0,0,
4/10/23,Tunapuna,HihgUrb,Site9,AM & JRA,15,9,289,340,16,0,0,
4/10/23,Tunapuna,HihgUrb,Site9,AM & JRA,15,10,323,340,12,0,0,
4/10/23,Tunapuna,HihgUrb,Site9,AM & JRA,20,1,13,260,5,0,0,
4/10/23,Tunapuna,HihgUrb,Site9,AM & JRA,20,2,39,260,8,0,0,
4/10/23,Tunapuna,HihgUrb,Site9,AM & JRA,20,3,65,260,10,0,0,
4/10/23,Tunapuna,HihgUrb,Site9,AM & JRA,20,4,91,260,10,0,0,
4/10/23,Tunapuna,HihgUrb,Site9,AM & JRA,20,5,117,260,12,0,0,
4/10/23,Tunapuna,HihgUrb,Site9,AM & JRA,20,6,143,260,12,0.8,1.1,
4/10/23,Tunapuna,HihgUrb,Site9,AM & JRA,20,7,169,260,13,0.6,1.1,
4/10/23,Tunapuna,HihgUrb,Site9,AM & JRA,20,8,195,260,12,0,0.2,
4/10/23,Tunapuna,HihgUrb,Site9,AM & JRA,20,9,221,260,12,0,0,
4/10/23,Tunapuna,HihgUrb,Site9,AM & JRA,20,10,247,260,17,0,0,
4/10/23,Tunapuna,HihgUrb,Site9,AM & JRA,25,1,15,300,3,0,0,
4/10/23,Tunapuna,HihgUrb,Site9,AM & JRA,25,2,45,300,8,0,0,
4/10/23,Tunapuna,HihgUrb,Site9,AM & JRA,25,3,75,300,8,0,0,
4/10/23,Tunapuna,HihgUrb,Site9,AM & JRA,25,4,105,300,10,0,0,
4/10/23,Tunapuna,HihgUrb,Site9,AM & JRA,25,5,135,300,10,0,0,
4/10/23,Tunapuna,HihgUrb,Site9,AM & JRA,25,6,165,300,10,0,0.4,
4/10/23,Tunapuna,HihgUrb,Site9,AM & JRA,25,7,195,300,10,0.2,0.4,
4/10/23,Tunapuna,HihgUrb,Site9,AM & JRA,25,8,225,300,8,0.4,0.4,
4/10/23,Tunapuna,HihgUrb,Site9,AM & JRA,25,9,255,300,9,0,0,
4/10/23,Tunapuna,HihgUrb,Site9,AM & JRA,25,10,285,300,8,0,0,
4/10/23,Tunapuna,HihgUrb,Site9,AM & JRA,30,1,15,300,8,0,0,
4/10/23,Tunapuna,HihgUrb,Site9,AM & JRA,30,2,45,300,10,0.2,0.2,
4/10/23,Tunapuna,HihgUrb,Site9,AM & JRA,30,3,75,300,0,0,0,
4/10/23,Tunapuna,HihgUrb,Site9,AM & JRA,30,4,105,300,11,0.2,0.4,
4/10/23,Tunapuna,HihgUrb,Site9,AM & JRA,30,5,135,300,12,0.2,0.2,
4/10/23,Tunapuna,HihgUrb,Site9,AM & JRA,30,6,165,300,10,0.4,0.4,
4/10/23,Tunapuna,HihgUrb,Site9,AM & JRA,30,7,195,300,3,0,0,
4/10/23,Tunapuna,HihgUrb,Site9,AM & JRA,30,8,225,300,4,0,0,
4/10/23,Tunapuna,HihgUrb,Site9,AM & JRA,30,9,255,300,3,0,0,
4/10/23,Tunapuna,HihgUrb,Site9,AM & JRA,30,10,285,300,2,0,0,